<?xml version="1.0" encoding="utf-8"?>
<!-- Generator: Adobe Illustrator 21.1.0, SVG Export Plug-In . SVG Version: 6.00 Build 0)  -->
<svg version="1.1" id="Layer_1" xmlns="http://www.w3.org/2000/svg" xmlns:xlink="http://www.w3.org/1999/xlink" x="0px" y="0px"
	 viewBox="0 0 180 180" style="enable-background:new 0 0 180 180;" xml:space="preserve">
<style type="text/css">
	.st0{fill:#132369;}
	.st1{fill:none;stroke:#FFFFFF;stroke-width:5;stroke-linecap:round;stroke-miterlimit:10;}
	.st2{fill:#FFFFFF;}
	.st3{fill:none;stroke:#FFFFFF;stroke-miterlimit:10;}
	.st4{fill:none;stroke:#FFFFFF;stroke-width:0.487;stroke-miterlimit:10;}
	.st5{fill:#061F6E;}
	.st6{fill:none;stroke:#061F6E;stroke-width:1.203;stroke-miterlimit:10;}
	.st7{fill:#2249B6;}
	.st8{fill:#6EAD3B;}
	.st9{fill:#5163A5;}
	.st10{fill:#70A83B;}
	.st11{fill:#080A00;}
</style>
<g>
	<path class="st2" d="M115.5,26.8c6.6,3.2,9.4,6.7,7.9,12.1c-3.2,11.8-0.9,23.6-1.6,35.4c-0.1,1.4,0.9,2.9,1.7,4.2
		c4.4,6.8,11.9,7.2,18.7,8.8c3.4,0.8,4.8,2.3,5.4,5.7c1.5,8.4,3.5,16.7,5.3,25.1c0.4,1.9,0.2,3.1-1.7,3.9c-3.8,1.8-7.4,3.8-11.2,5.6
		c-0.8,0.4-2.2,0.4-2.8-0.1c-0.6-0.5-0.4-1.8-0.5-2.8c0-0.2,0.1-0.3,0.2-0.5c5.7-8.3,0.7-15.7-2.2-23.2c-0.2-0.6-1.2-1.1-1.9-1.5
		c-4.8-2.2-9.5-4.8-14.6-6.4c-3.1-1-6.9-1.1-10-0.2c-5.3,1.6-10.3,4.3-15.4,6.7c-0.8,0.4-1.6,1.3-2,2.1c-0.7,1.2-0.9,2.7-1.5,4
		c-3.1,6.1-4.1,12.2-0.3,18.5c0.5,0.8-0.1,2.2-0.1,3.4c-1.1-0.1-2.2,0.2-3.1-0.3c-3.7-1.7-7.3-3.6-11-5.4c-1.5-0.7-2.1-1.7-1.7-3.4
		c2.1-9.8,4.1-19.7,6-29.6c0.4-2.3,1.5-3,3.6-3.2c4.1-0.4,8.1-0.8,12.1-1.6c1.6-0.3,3.1-1.4,4.6-2.3c4.5-3,5.6-7.2,5.3-12.5
		c-0.4-7.5-0.1-15-0.1-23c-17.7,3.9-35,7.8-52.6,11.7c0,22.5,0,45,0,68.1c1.7,0,3.4,0,5.2,0c2.1,0,3.1,0.9,3.1,3.1
		c0,7.1,0,14.1,0,21.2c0,2.2-1,3-3.1,3c-9.1-0.1-18.3-0.1-27.4,0c-2.4,0-3.2-0.9-3.2-3.2c0.1-7,0.1-13.9,0-20.9c0-2.4,1-3.1,3.2-3.2
		c5.3-0.1,5.3-0.2,5.3-5.5c0-20,0-40,0-60c0-1.9-0.4-3.3-1.6-4.9c-3.1-3.9-3.6-8.4-1.5-12.9c2.1-4.5,5.7-7,10.7-7.3
		c20-1.3,40.1-2.7,60.1-4c0.6,0,1.3-0.2,1.9-0.5c2-1.3,4-2.7,6-4C112.5,26.8,114,26.8,115.5,26.8z M32.8,130.3
		c3.7,5.9,7.2,11.3,10.9,17.1c3.7-5.8,7.2-11.3,10.8-17.1C47.2,130.3,40.3,130.3,32.8,130.3z M52.1,47.9c0-4.8-3.8-8.5-8.5-8.5
		c-4.5,0-8.3,3.9-8.4,8.4c-0.1,4.7,4,8.7,8.7,8.7C48.4,56.3,52.1,52.5,52.1,47.9z M119.5,37.3c0-3.6-2.7-6.4-6.2-6.4
		c-3.3-0.1-6.4,2.8-6.4,6.3c-0.1,3.6,2.9,6.6,6.4,6.6C116.7,43.7,119.5,40.9,119.5,37.3z M56.3,136.2c-0.2-0.1-0.4-0.2-0.5-0.3
		c-2.7,4.3-5.4,8.5-8.2,13c3.2,0,5.9,0,8.7,0C56.3,144.5,56.3,140.4,56.3,136.2z M39.8,149c-3-4.6-5.6-8.9-8.7-13.7
		c0,5,0,9.3,0,13.7C33.9,149,36.6,149,39.8,149z"/>
	<path class="st2" d="M113.2,137.2c-1.8,2.7-3.5,3.7-6.7,2.8c-3.1-1-3.1-3.3-3.7-5.7c-0.7,0-1.3-0.2-1.8,0c-1.9,0.7-3.2,0.1-4.3-1.6
		c-1.2-1.8-2.9-3.5-1.1-5.8c1-1.3,0.6-2.4-0.9-2.8c-2.5-0.7-2.3-2.6-2.3-4.5c0-1.9-0.2-3.8,2.3-4.6c0.6-0.2,1.4-1.6,1.2-2.2
		c-1.8-5.5,0.9-8.7,6.8-7.7c1-2.1,0.5-5,4-5.9c3.2-0.8,4.8,0.3,6.6,2.7c1.7-2.4,3.4-3.6,6.5-2.7c3.3,1,3.3,3.4,4,6.1
		c2.8-1.2,5-1,6.6,1.8c1,1.8,1.7,3.3,0.4,5.2c-1,1.4-0.5,2.3,1,2.8c2.4,0.7,2.4,2.5,2.4,4.5c0,2,0,3.8-2.4,4.5
		c-1.2,0.3-1.9,1-1.2,2.5c2,4.6-0.8,8.2-5.7,7.6c-0.4,0-0.7,0-1.3,0c-0.5,2.5-0.7,4.8-4,5.8C116.7,141,115.1,139.8,113.2,137.2z
		 M108.4,136c0.2-0.1,0.6-0.2,0.9-0.5c2.9-2.6,4.6-2.6,7.8-0.2c2,1.5,2.1-0.1,2.3-1.5c0.5-2.6,2.9-4.3,5.5-3.9
		c0.6,0.1,1.5,0.2,1.8-0.2c0.3-0.3,0.2-1.2,0-1.8c-1.3-3.3-0.8-5.2,2.2-7.1c1.7-1,1.6-1.7-0.1-2.8c-1.1-0.7-2.2-2-2.4-3.2
		c-0.3-1.8,0.3-3.7,0.5-5.6c-0.2-0.1-0.5-0.3-0.7-0.3c-4.9,0-5.3-0.2-6.8-4.7c-0.6-1.7-1.5-1.5-2.4-0.3c-1.5,1.9-3.5,1.9-5.4,1.3
		c-1.2-0.4-2.1-1.5-3.5-2.7c-0.8,5-3.3,7.6-8.3,6.3c-0.1,0.7-0.2,1-0.1,1.2c1.6,4.9,1.5,4.9-2.2,8.2c-0.3,0.3-0.1,1.9,0.3,2.3
		c3,2.2,3.6,3.8,2.3,7.1c-0.2,0.5-0.3,1.4-0.1,1.7c0.3,0.3,1.1,0.2,1.7,0.3c1.1,0.2,2.6,0.2,3.3,0.9
		C106.2,132.3,107.1,134.1,108.4,136z"/>
	<path class="st2" d="M43.7,43.8c2.4,0,4.2,1.8,4.1,4.1c-0.1,2.3-1.9,4.1-4.2,4c-2.3,0-4.2-2-4.1-4.2C39.5,45.6,41.4,43.8,43.7,43.8
		z"/>
	<path class="st2" d="M102.9,119.4c0-5.9,4.7-10.4,10.6-10.3c5.7,0.1,10.2,4.7,10.2,10.4c0,5.9-4.6,10.6-10.5,10.5
		C107.4,130,102.8,125.4,102.9,119.4z"/>
</g>
</svg>
