<?xml version="1.0" encoding="utf-8"?>
<!-- Generator: Adobe Illustrator 21.1.0, SVG Export Plug-In . SVG Version: 6.00 Build 0)  -->
<svg version="1.1" id="Layer_1" xmlns="http://www.w3.org/2000/svg" xmlns:xlink="http://www.w3.org/1999/xlink" x="0px" y="0px"
	 viewBox="0 0 500 145.5" style="enable-background:new 0 0 500 145.5;" xml:space="preserve">
<style type="text/css">
	.st0{fill:#132369;}
	.st1{fill:none;stroke:#FFFFFF;stroke-width:5;stroke-linecap:round;stroke-miterlimit:10;}
	.st2{fill:#FFFFFF;}
	.st3{fill:none;stroke:#FFFFFF;stroke-miterlimit:10;}
	.st4{fill:none;stroke:#FFFFFF;stroke-width:0.487;stroke-miterlimit:10;}
	.st5{fill:#061F6E;}
	.st6{fill:none;stroke:#061F6E;stroke-width:1.203;stroke-miterlimit:10;}
	.st7{fill:#2249B6;}
	.st8{fill:#6EAD3B;}
	.st9{fill:#5163A5;}
	.st10{fill:#70A83B;}
	.st11{fill:#080A00;}
</style>
<g>
	<path class="st2" d="M96,90.7C118.3,49.9,145.5,0,145.5,0h0h-9.2c-5,0-9.6,0.7-14.4,3.7c-6.8,4.2-9.7,10.2-12.2,14.9L86.5,61
		C93.1,73.2,95.9,82.2,96,90.7"/>
	<path class="st2" d="M82.3,62.7c-8.1-15.1-19.1-26.7-19.8-27.3c-0.6-0.7-1.6-1.5-2.7-1.5c-1.2,0-2.1,0.8-2.7,1.5
		c-0.6,0.6-10.8,11.3-18.8,25.5l12.2,22.3c0.2-0.4,0.4-0.7,0.6-1.1l8.8-14.3l8.8,14.3c1.1,1.7,1.7,3.7,1.7,5.9
		c0,5.9-4.7,10.7-10.5,10.7c-0.3,0-0.6,0-0.9,0l2.9,5.2c2.5,4.9,7.7,8.3,13.6,8.3c5.4,0,10.3-2.6,12.8-6.9c2.3-4.2,3.4-9.1,3.4-14.3
		C91.4,82.5,88.3,73.8,82.3,62.7"/>
	<path class="st2" d="M74.5,116.7c-7.1,0-13.3-4-16.4-9.9l-22.4-41v0c-2.5-4.6-5.4-10.4-12-14.5c-4.8-3-9.4-3.7-14.4-3.7H0
		c0,0,37.4,68.6,49.9,91.5c2.3,4.3,5.8,6.5,9.8,6.5c4,0,7.5-2.2,9.8-6.5c2.6-4.8,7.4-13.5,13.4-24.5l0,0
		C80.4,115.9,77.5,116.7,74.5,116.7"/>
	<path class="st2" d="M199.1,78.9c0,4-3.4,7.3-7.6,7.3c-4.2,0-7.6-3.3-7.6-7.3c0-4,3.4-7.3,7.6-7.3
		C195.7,71.6,199.1,74.8,199.1,78.9"/>
	<rect x="184.7" y="90.7" class="st2" width="13.6" height="53.7"/>
	<path class="st2" d="M480.2,78.9c0,4-3.4,7.3-7.6,7.3c-4.2,0-7.6-3.3-7.6-7.3c0-4,3.4-7.3,7.6-7.3
		C476.8,71.6,480.2,74.8,480.2,78.9"/>
	<rect x="465.8" y="90.7" class="st2" width="13.6" height="53.7"/>
	<path class="st2" d="M145.4,130.7h0.3c1-4.4,2.1-6.7,3.8-11.6L162,80.8c1.6-5.1,6.3-8.5,11.6-8.5h5.3l-24.7,66.9
		c-1.4,3.8-5,6.3-9,6.3c-4,0-7.6-2.5-9-6.2l-17.6-47.4h5.8c5.3,0,10,3.4,11.6,8.5L145.4,130.7z"/>
	<path class="st2" d="M208,106.7c0-6.2-0.2-11.4-0.4-16h11.8l0.7,8h0.3c2.4-4.2,8.3-9.3,17.2-9.3c9.4,0,19.1,6.1,19.1,23v31.9h-13.6
		v-30.3c0-7.7-2.9-13.6-10.3-13.6c-5.4,0-9.1,3.9-10.6,7.9c-0.4,1.1-0.7,2.8-0.7,4.3v31.6H208V106.7z"/>
	<path class="st2" d="M307.8,142.7c-2.9,1.3-8.5,2.8-15.2,2.8c-16.8,0-27.7-10.8-27.7-27.4c0-16.1,11-28.6,29.9-28.6
		c5,0,10,1.1,13.1,2.4l-2.4,10.3c-2.2-1.1-5.4-2.1-10.3-2.1c-10.4,0-16.5,7.6-16.4,17.4c0,11,7.2,17.3,16.4,17.3
		c4.6,0,8.1-1,10.7-2.1L307.8,142.7z"/>
	<path class="st2" d="M323.7,121.4c0.3,9.7,7.9,13.9,16.5,13.9c6.3,0,10.7-1,14.9-2.4l2,9.3c-4.6,2-11,3.4-18.7,3.4
		c-17.4,0-27.7-10.7-27.7-27.1c0-14.9,9-28.9,26.2-28.9c17.4,0,23.1,14.3,23.1,26.1c0,2.5-0.2,4.5-0.4,5.7H323.7z M347.3,111.9
		c0.1-5-2.1-13.1-11.1-13.1c-8.4,0-11.9,7.6-12.5,13.1H347.3z"/>
	<path class="st2" d="M368.2,106.7c0-6.2-0.2-11.4-0.4-16h11.8l0.7,8h0.3c2.4-4.2,8.3-9.3,17.2-9.3c9.4,0,19.1,6.1,19.1,23v31.9
		h-13.6v-30.3c0-7.7-2.9-13.6-10.3-13.6c-5.4,0-9.2,3.9-10.6,7.9c-0.4,1.1-0.7,2.8-0.7,4.3v31.6h-13.6V106.7z"/>
	<path class="st2" d="M443.5,74.7v16.1h12.9v10.1h-12.9v23.6c0,6.6,1.8,9.9,6.9,9.9c2.4,0,3.7-0.1,5.3-0.6l0.2,10.3
		c-2,0.8-5.6,1.4-9.8,1.4c-5.1,0-9.1-1.7-11.7-4.4c-3-3.1-4.3-8-4.3-15.1v-25.1h-7.6V90.7h7.6V74.7H443.5z"/>
	<path class="st2" d="M489.2,132.3c0.7-0.1,1.7-0.2,2.7-0.2c1.4,0,2.3,0.2,3,0.8c0.5,0.5,0.8,1.2,0.8,2c0,1.3-0.9,2.2-1.8,2.5v0
		c0.7,0.3,1.1,1,1.4,1.9c0.3,1.2,0.6,2.4,0.8,2.8h-1.8c-0.1-0.3-0.4-1.1-0.7-2.4c-0.3-1.3-0.7-1.7-1.7-1.7H491v4.1h-1.8V132.3z
		 M491,136.7h1.1c1.2,0,1.9-0.7,1.9-1.6c0-1.1-0.7-1.6-1.9-1.6c-0.6,0-0.9,0-1.1,0.1V136.7z"/>
	<ellipse class="st4" cx="492.3" cy="137.3" rx="7.7" ry="7.5"/>
</g>
</svg>
