<?xml version="1.0" encoding="utf-8"?>
<!-- Generator: Adobe Illustrator 21.1.0, SVG Export Plug-In . SVG Version: 6.00 Build 0)  -->
<svg version="1.1" id="Layer_1" xmlns="http://www.w3.org/2000/svg" xmlns:xlink="http://www.w3.org/1999/xlink" x="0px" y="0px"
	 viewBox="0 0 384 90.6" style="enable-background:new 0 0 384 90.6;" xml:space="preserve">
<style type="text/css">
	.st0{fill:none;stroke:#FFFFFF;stroke-miterlimit:10;}
	.st1{fill:none;stroke:#061F6E;stroke-miterlimit:10;}
</style>
<g>
	<path class="st0" d="M379.1,12.5L379.1,12.5h-9.2c-5,0-9.6,0.7-14.4,3.7c-6.8,4.2-9.7,10.3-12.2,14.9l-25.8,47.2"/>
	<line class="st0" x1="335.5" y1="45.4" x2="4.7" y2="45.4"/>
</g>
<g>
	<path class="st1" d="M378.9,12.4L378.9,12.4h-9.2c-5,0-9.6,0.7-14.4,3.7c-6.8,4.2-9.7,10.3-12.2,14.9l-25.8,47.2"/>
	<line class="st1" x1="335.3" y1="45.3" x2="4.7" y2="45.3"/>
</g>
</svg>
