<?xml version="1.0" encoding="utf-8"?>
<!-- Generator: Adobe Illustrator 21.1.0, SVG Export Plug-In . SVG Version: 6.00 Build 0)  -->
<svg version="1.1" id="Capa_1" xmlns="http://www.w3.org/2000/svg" xmlns:xlink="http://www.w3.org/1999/xlink" x="0px" y="0px"
	 viewBox="0 0 283.2 283.2" style="enable-background:new 0 0 283.2 283.2;" xml:space="preserve">
<style type="text/css">
	.st0{fill:#FFFFFF;}
	.st1{clip-path:url(#SVGID_3_);}
	.st2{fill:none;stroke:#F2F2F2;stroke-width:3;stroke-miterlimit:10;}
	.st3{fill:#6FAB38;}
</style>
<g>
	<g>
		<rect id="SVGID_89_" x="737.4" y="-269.9" class="st0" width="1024.5" height="225.1"/>
	</g>
	<g>
		<defs>
			<rect id="SVGID_2_" x="737.4" y="-269.9" width="1024.5" height="225.1"/>
		</defs>
		<clipPath id="SVGID_3_">
			<use xlink:href="#SVGID_2_"  style="overflow:visible;"/>
		</clipPath>
		<g class="st1">
			
				<image style="overflow:visible;enable-background:new    ;" width="3339" height="1075" xlink:href="D68CE1FC.jpg"  transform="matrix(1.0813 0 0 1.0778 -1785.5542 -650.8522)">
			</image>
		</g>
	</g>
	<g>
		<rect id="SVGID_1_" x="737.4" y="-269.9" class="st2" width="1024.5" height="225.1"/>
	</g>
</g>
<g>
	<g>
		<circle class="st3" cx="141.6" cy="141.6" r="141.6"/>
	</g>
</g>
<g>
	<path id="Facebook_Places" class="st0" d="M205.1,93.8c-0.7-2.6-2.1-5.3-3.1-7.7C189.7,56.6,162.9,46,141.2,46
		c-29,0-61,19.5-65.3,59.6v8.2c0,0.3,0.1,3.4,0.3,5c2.4,19.1,17.5,39.4,28.8,58.6c12.1,20.5,24.7,40.6,37.2,60.8
		c7.7-13.1,15.3-26.5,22.9-39.3c2-3.8,4.4-7.5,6.5-11.1c1.4-2.4,4-4.8,5.2-7c12.1-22.2,31.6-44.6,31.6-66.6v-9.1
		C208.2,102.7,205.3,94.3,205.1,93.8z M141.7,135c-8.5,0-17.9-4.3-22.5-16.1c-0.7-1.9-0.6-5.6-0.6-6v-5.3c0-15,12.8-21.9,23.9-21.9
		c13.7,0,24.2,10.9,24.2,24.6C166.7,124,155.4,135,141.7,135z"/>
</g>
</svg>
